lab7/CalculadoraProg/un_controle_tb.vcd
$date
  Wed May 04 15:47:00 2022
$end
$version
  GHDL v0
$end
$timescale
  1 fs
$end
$scope module standard $end
$upscope $end
$scope module textio $end
$upscope $end
$scope module std_logic_1164 $end
$upscope $end
$scope module numeric_std $end
$upscope $end
$scope module un_controle_tb $end
$var reg 1 ! finished $end
$var reg 1 " clk $end
$var reg 1 # rst $end
$var reg 1 $ pc_wr $end
$var reg 1 % pc_rst $end
$var reg 16 & pc_data_wr[15:0] $end
$var reg 16 ' pc_data[15:0] $end
$var reg 1 ( pc_jump_en $end
$var reg 15 ) rom_out[14:0] $end
$var reg 15 * instruction[14:0] $end
$scope module ucontrole $end
$var reg 1 + clk $end
$var reg 1 , rst $end
$var reg 15 - instr[14:0] $end
$var reg 1 . pc_wr_en $end
$var reg 1 / pc_rst $end
$var reg 1 0 jump_en $end
$var reg 4 1 opcode_i[3:0] $end
$var reg 1 2 state[0:0] $end
$scope module state_m $end
$var reg 1 3 clk $end
$var reg 1 4 rst $end
$var reg 1 5 data_out[0:0] $end
$var reg 1 6 data[0:0] $end
$upscope $end
$upscope $end
$scope module pc $end
$var reg 1 7 clk $end
$var reg 1 8 rst $end
$var reg 1 9 wr_en $end
$var reg 16 : data_in[15:0] $end
$var reg 16 ; data_out[15:0] $end
$var reg 16 < data[15:0] $end
$upscope $end
$scope module m_rom $end
$var reg 1 = clk $end
$var reg 16 > endereco[15:0] $end
$var reg 15 ? dado[14:0] $end
$upscope $end
$upscope $end
$enddefinitions $end
#0
0!
0"
1#
0$
1%
b0000000000000001 &
b0000000000000000 '
0(
bUUUUUUUUUUUUUUU )
bUUUUUUUUUUUUUUU *
0+
1,
bUUUUUUUUUUUUUUU -
0.
1/
00
bUUUU 1
b0 2
03
14
b0 5
b0 6
07
18
09
b0000000000000001 :
b0000000000000000 ;
b0000000000000000 <
0=
b0000000000000000 >
bUUUUUUUUUUUUUUU ?
#50000000
1"
b000000000000000 )
b000000000000000 *
1+
b000000000000000 -
b0000 1
13
17
1=
b000000000000000 ?
#100000000
0"
0#
0%
0+
0,
0/
03
04
07
08
0=
#150000000
1"
1$
1+
1.
b1 2
13
b1 5
b1 6
17
19
1=
#200000000
0"
0+
03
07
0=
#250000000
1"
0$
b0000000000000010 &
b0000000000000001 '
1+
0.
b0 2
13
b0 5
b0 6
17
09
b0000000000000010 :
b0000000000000001 ;
b0000000000000001 <
1=
b0000000000000001 >
#300000000
0"
0+
03
07
0=
#350000000
1"
1$
b0000000000000100 &
1(
b110100000000100 )
b110100000000100 *
1+
b110100000000100 -
1.
10
b1101 1
b1 2
13
b1 5
b1 6
17
19
b0000000000000100 :
1=
b110100000000100 ?
#400000000
0"
0+
03
07
0=
#450000000
1"
0$
b0000000000000100 '
1+
0.
b0 2
13
b0 5
b0 6
17
09
b0000000000000100 ;
b0000000000000100 <
1=
b0000000000000100 >
#500000000
0"
0+
03
07
0=
#550000000
1"
1$
b0000000000000101 &
0(
b000000000000000 )
b000000000000000 *
1+
b000000000000000 -
1.
00
b0000 1
b1 2
13
b1 5
b1 6
17
19
b0000000000000101 :
1=
b000000000000000 ?
#600000000
0"
0+
03
07
0=
#650000000
1"
0$
b0000000000000110 &
b0000000000000101 '
1+
0.
b0 2
13
b0 5
b0 6
17
09
b0000000000000110 :
b0000000000000101 ;
b0000000000000101 <
1=
b0000000000000101 >
#700000000
0"
0+
03
07
0=
#750000000
1"
1$
1+
1.
b1 2
13
b1 5
b1 6
17
19
1=
#800000000
0"
0+
03
07
0=
#850000000
1"
0$
b0000000000000111 &
b0000000000000110 '
1+
0.
b0 2
13
b0 5
b0 6
17
09
b0000000000000111 :
b0000000000000110 ;
b0000000000000110 <
1=
b0000000000000110 >
#900000000
0"
0+
03
07
0=
#950000000
1"
1$
b0000000000001000 &
1(
b110100000001000 )
b110100000001000 *
1+
b110100000001000 -
1.
10
b1101 1
b1 2
13
b1 5
b1 6
17
19
b0000000000001000 :
1=
b110100000001000 ?
#1000000000
0"
0+
03
07
0=
#1050000000
1"
0$
b0000000000001000 '
1+
0.
b0 2
13
b0 5
b0 6
17
09
b0000000000001000 ;
b0000000000001000 <
1=
b0000000000001000 >
#1100000000
0"
0+
03
07
0=
#1150000000
1"
1$
b0000000000001001 &
0(
b000000000000000 )
b000000000000000 *
1+
b000000000000000 -
1.
00
b0000 1
b1 2
13
b1 5
b1 6
17
19
b0000000000001001 :
1=
b000000000000000 ?
#1200000000
0"
0+
03
07
0=
#1250000000
1"
0$
b0000000000001010 &
b0000000000001001 '
1+
0.
b0 2
13
b0 5
b0 6
17
09
b0000000000001010 :
b0000000000001001 ;
b0000000000001001 <
1=
b0000000000001001 >
#1300000000
0"
0+
03
07
0=
#1350000000
1"
1$
1+
1.
b1 2
13
b1 5
b1 6
17
19
1=
#1400000000
0"
0+
03
07
0=
#1450000000
1"
0$
b0000000000001011 &
b0000000000001010 '
1+
0.
b0 2
13
b0 5
b0 6
17
09
b0000000000001011 :
b0000000000001010 ;
b0000000000001010 <
1=
b0000000000001010 >
#1500000000
0"
0+
03
07
0=
#1550000000
1"
1$
1+
1.
b1 2
13
b1 5
b1 6
17
19
1=
#1600000000
0"
0+
03
07
0=
#1650000000
1"
0$
b0000000000001100 &
b0000000000001011 '
1+
0.
b0 2
13
b0 5
b0 6
17
09
b0000000000001100 :
b0000000000001011 ;
b0000000000001011 <
1=
b0000000000001011 >
#1700000000
0"
0+
03
07
0=
#1750000000
1"
1$
b0000000000000010 &
1(
b110100000000010 )
b110100000000010 *
1+
b110100000000010 -
1.
10
b1101 1
b1 2
13
b1 5
b1 6
17
19
b0000000000000010 :
1=
b110100000000010 ?
#1800000000
0"
0+
03
07
0=
#1850000000
1"
0$
b0000000000000010 '
1+
0.
b0 2
13
b0 5
b0 6
17
09
b0000000000000010 ;
b0000000000000010 <
1=
b0000000000000010 >
#1900000000
0"
0+
03
07
0=
#1950000000
1"
1$
b0000000000000011 &
0(
b000000000000000 )
b000000000000000 *
1+
b000000000000000 -
1.
00
b0000 1
b1 2
13
b1 5
b1 6
17
19
b0000000000000011 :
1=
b000000000000000 ?
#2000000000
0"
0+
03
07
0=
#2050000000
1"
0$
b0000000000000100 &
b0000000000000011 '
1+
0.
b0 2
13
b0 5
b0 6
17
09
b0000000000000100 :
b0000000000000011 ;
b0000000000000011 <
1=
b0000000000000011 >
#2100000000
0"
0+
03
07
0=
#2150000000
1"
1$
1+
1.
b1 2
13
b1 5
b1 6
17
19
1=
#2200000000
0"
0+
03
07
0=
#2250000000
1"
0$
b0000000000000101 &
b0000000000000100 '
1+
0.
b0 2
13
b0 5
b0 6
17
09
b0000000000000101 :
b0000000000000100 ;
b0000000000000100 <
1=
b0000000000000100 >
#2300000000
0"
0+
03
07
0=
#2350000000
1"
1$
1+
1.
b1 2
13
b1 5
b1 6
17
19
1=
#2400000000
0"
0+
03
07
0=
#2450000000
1"
0$
b0000000000000110 &
b0000000000000101 '
1+
0.
b0 2
13
b0 5
b0 6
17
09
b0000000000000110 :
b0000000000000101 ;
b0000000000000101 <
1=
b0000000000000101 >
#2500000000
0"
0+
03
07
0=
#2550000000
1"
1$
1+
1.
b1 2
13
b1 5
b1 6
17
19
1=
#2600000000
0"
0+
03
07
0=
#2650000000
1"
0$
b0000000000000111 &
b0000000000000110 '
1+
0.
b0 2
13
b0 5
b0 6
17
09
b0000000000000111 :
b0000000000000110 ;
b0000000000000110 <
1=
b0000000000000110 >
#2700000000
0"
0+
03
07
0=
#2750000000
1"
1$
b0000000000001000 &
1(
b110100000001000 )
b110100000001000 *
1+
b110100000001000 -
1.
10
b1101 1
b1 2
13
b1 5
b1 6
17
19
b0000000000001000 :
1=
b110100000001000 ?
#2800000000
0"
0+
03
07
0=
#2850000000
1"
0$
b0000000000001000 '
1+
0.
b0 2
13
b0 5
b0 6
17
09
b0000000000001000 ;
b0000000000001000 <
1=
b0000000000001000 >
#2900000000
0"
0+
03
07
0=
#2950000000
1"
1$
b0000000000001001 &
0(
b000000000000000 )
b000000000000000 *
1+
b000000000000000 -
1.
00
b0000 1
b1 2
13
b1 5
b1 6
17
19
b0000000000001001 :
1=
b000000000000000 ?
#3000000000
0"
0+
03
07
0=
#3050000000
1"
0$
b0000000000001010 &
b0000000000001001 '
1+
0.
b0 2
13
b0 5
b0 6
17
09
b0000000000001010 :
b0000000000001001 ;
b0000000000001001 <
1=
b0000000000001001 >
#3100000000
0"
0+
03
07
0=
#3150000000
1"
1$
1+
1.
b1 2
13
b1 5
b1 6
17
19
1=
#3200000000
0"
0+
03
07
0=
#3250000000
1"
0$
b0000000000001011 &
b0000000000001010 '
1+
0.
b0 2
13
b0 5
b0 6
17
09
b0000000000001011 :
b0000000000001010 ;
b0000000000001010 <
1=
b0000000000001010 >
#3300000000
0"
0+
03
07
0=
#3350000000
1"
1$
1+
1.
b1 2
13
b1 5
b1 6
17
19
1=
#3400000000
0"
0+
03
07
0=
#3450000000
1"
0$
b0000000000001100 &
b0000000000001011 '
1+
0.
b0 2
13
b0 5
b0 6
17
09
b0000000000001100 :
b0000000000001011 ;
b0000000000001011 <
1=
b0000000000001011 >
#3500000000
0"
0+
03
07
0=
#3550000000
1"
1$
b0000000000000010 &
1(
b110100000000010 )
b110100000000010 *
1+
b110100000000010 -
1.
10
b1101 1
b1 2
13
b1 5
b1 6
17
19
b0000000000000010 :
1=
b110100000000010 ?
#3600000000
0"
0+
03
07
0=
#3650000000
1"
0$
b0000000000000010 '
1+
0.
b0 2
13
b0 5
b0 6
17
09
b0000000000000010 ;
b0000000000000010 <
1=
b0000000000000010 >
#3700000000
0"
0+
03
07
0=
#3750000000
1"
1$
b0000000000000011 &
0(
b000000000000000 )
b000000000000000 *
1+
b000000000000000 -
1.
00
b0000 1
b1 2
13
b1 5
b1 6
17
19
b0000000000000011 :
1=
b000000000000000 ?
#3800000000
0"
0+
03
07
0=
#3850000000
1"
0$
b0000000000000100 &
b0000000000000011 '
1+
0.
b0 2
13
b0 5
b0 6
17
09
b0000000000000100 :
b0000000000000011 ;
b0000000000000011 <
1=
b0000000000000011 >
#3900000000
0"
0+
03
07
0=
#3950000000
1"
1$
1+
1.
b1 2
13
b1 5
b1 6
17
19
1=
#4000000000
1!
0"
0+
03
07
0=
#4050000000
1"
0$
b0000000000000101 &
b0000000000000100 '
1+
0.
b0 2
13
b0 5
b0 6
17
09
b0000000000000101 :
b0000000000000100 ;
b0000000000000100 <
1=
b0000000000000100 >
